{
    "version": "https://jsonfeed.org/version/1",
    "title": "tinyweb",
    "description": "",
    "home_page_url": "https://tdsanchez.gitlab.io/blog",
    "feed_url": "https://tdsanchez.gitlab.io/blog/feed.json",
    "user_comment": "",
    "author": {
        "name": "Toby Sanchez"
    },
    "items": [
        {
            "id": "https://tdsanchez.gitlab.io/blog/test.html",
            "url": "https://tdsanchez.gitlab.io/blog/test.html",
            "title": "test it",
            "author": {
                "name": "Toby Sanchez"
            },
            "tags": [
            ],
            "date_published": "2022-07-01T12:08:43-07:00",
            "date_modified": "2022-07-01T12:12:36-07:00"
        }
    ]
}
